…
# Task 1 and Task 2
# Map each model to the gapminder data, we're using lifeExp and year in this case.
list_m <- gap %>%
  group_by(country) %>%
  nest() %>%
  mutate(model = map(data, ~ lm(lifeExp ~ year, data = .)))

# Task 3 intermediate table
list_m
```

    ## # A tibble: 142 × 3
    ## # Groups:   country [142]
    ##    country     data              model 
    ##    <fct>       <list>            <list>
    ##  1 Afghanistan <tibble [12 × 5]> <lm>  
    ##  2 Albania     <tibble [12 × 5]> <lm>  
    ##  3 Algeria     <tibble [12 × 5]> <lm>  
    ##  4 Angola      <tibble [12 × 5]> <lm>  
    ##  5 Argentina   <tibble [12 × 5]> <lm>  
    ##  6 Australia   <tibble [12 × 5]> <lm>  
    ##  7 Austria     <tibble [12 × 5]> <lm>  
    ##  8 Bahrain     <tibble [12 × 5]> <lm>  
    ##  9 Bangladesh  <tibble [12 × 5]> <lm>  
    ## 10 Belgium     <tibble [12 × 5]> <lm>  
    ## # … with 132 more rows

``` r
# Task 4
# Extracting coefficients from each lm and unnesting the calculations
list_m_pull <- list_m %>% 
    mutate(lm_coefficients = map(model, coef), 
           )
list_m_pull
```

    ## # A tibble: 142 × 4
    ## # Groups:   country [142]
    ##    country     data              model  lm_coefficients
    ##    <fct>       <list>            <list> <list>         
    ##  1 Afghanistan <tibble [12 × 5]> <lm>   <dbl [2]>      
    ##  2 Albania     <tibble [12 × 5]> <lm>   <dbl [2]>      
    ##  3 Algeria     <tibble [12 × 5]> <lm>   <dbl [2]>      
    ##  4 Angola      <tibble [12 × 5]> <lm>   <dbl [2]>      
    ##  5 Argentina   <tibble [12 × 5]> <lm>   <dbl [2]>      
    ##  6 Australia   <tibble [12 × 5]> <lm>   <dbl [2]>      
    ##  7 Austria     <tibble [12 × 5]> <lm>   <dbl [2]>      
    ##  8 Bahrain     <tibble [12 × 5]> <lm>   <dbl [2]>      
    ##  9 Bangladesh  <tibble [12 × 5]> <lm>   <dbl [2]>      
    ## 10 Belgium     <tibble [12 × 5]> <lm>   <dbl [2]>      
    ## # … with 132 more rows

``` r
list_un <- list_m_pull %>%
    unnest(lm_coefficients)
list_un
```

    ## # A tibble: 284 × 4
    ## # Groups:   country [142]
    ##    country     data              model  lm_coefficients
    ##    <fct>       <list>            <list>           <dbl>
    ##  1 Afghanistan <tibble [12 × 5]> <lm>          -508.   
    ##  2 Afghanistan <tibble [12 × 5]> <lm>             0.275
    ##  3 Albania     <tibble [12 × 5]> <lm>          -594.   
    ##  4 Albania     <tibble [12 × 5]> <lm>             0.335
    ##  5 Algeria     <tibble [12 × 5]> <lm>         -1068.   
    ##  6 Algeria     <tibble [12 × 5]> <lm>             0.569
    ##  7 Angola      <tibble [12 × 5]> <lm>          -377.   
    ##  8 Angola      <tibble [12 × 5]> <lm>             0.209
    ##  9 Argentina   <tibble [12 × 5]> <lm>          -390.   
    ## 10 Argentina   <tibble [12 × 5]> <lm>             0.232
    ## # … with 274 more rows
…
